Proyecto final curso R
…
ℹ Use `spec()` to retrieve the full column specification for this data.
ℹ Specify the column types or set `show_col_types = FALSE` to quiet this message.

toxinas <- read_delim(
  file = "datostoxinas.csv",
  delim = ";",
  col_type = list(Nombre = "f"),
)

toxinas

# A tibble: 46 × 18
   Nombre   `7D-CYN` ATXA  `CYN + 7E-CYN` `D-MCLR ` `D-MCRR + DE-MCRR ` `H-ATXA`
   <fct>    <chr>    <chr> <chr>          <chr>     <chr>               <chr>   
 1 A1-0     N.D.     N.D.  N.D.           1.03      <0.040              N.D.    
 2 A1-2h    N.D.     N.D.  N.D.           1.03      <0.040              N.D.    
 3 A1-6h    N.D.     N.D.  N.D.           1.13      <0.040              N.D.    
 4 A1-1     N.D.     N.D.  N.D.           1.06      <0.040              N.D.    
 5 A1-14-0h N.D.     N.D.  N.D.           1.14      <0.040              N.D.    
 6 A1-14-2h N.D.     N.D.  N.D.           1.21      <0.040              N.D.    
 7 A1-14-6h N.D.     N.D.  N.D.           1.12      <0.040              N.D.    
 8 A1-15    N.D.     N.D.  N.D.           0.930     <0.040              N.D.    
 9 B1-0     N.D.     N.D.  N.D.           0.910     <0.040              N.D.    
10 B1-2h    N.D.     N.D.  N.D.           1.07      <0.040              N.D.    
# ℹ 36 more rows
# ℹ 11 more variables: `MC-HILR` <chr>, `MC-HTYR` <chr>, MCLA <chr>,
#   `MCLF ` <chr>, MCLR <chr>, MCLW <chr>, MCLY <chr>, MCRR <chr>, MCWR <chr>,
#   MCYR <chr>, NOD <chr>
…
ℹ Use `spec()` to retrieve the full column specification for this data.
ℹ Specify the column types or set `show_col_types = FALSE` to quiet this message.

toxinas <- read_delim(
  file = "datostoxinas.csv",
  delim = ";",
  col_type = list(Nombre = "f"),
)

toxinas

# A tibble: 46 × 18
   Nombre   `7D-CYN` ATXA  `CYN + 7E-CYN` `D-MCLR ` `D-MCRR + DE-MCRR ` `H-ATXA`
   <fct>    <chr>    <chr> <chr>          <chr>     <chr>               <chr>   
 1 A1-0     N.D.     N.D.  N.D.           1.03      <0.040              N.D.    
 2 A1-2h    N.D.     N.D.  N.D.           1.03      <0.040              N.D.    
 3 A1-6h    N.D.     N.D.  N.D.           1.13      <0.040              N.D.    
 4 A1-1     N.D.     N.D.  N.D.           1.06      <0.040              N.D.    
 5 A1-14-0h N.D.     N.D.  N.D.           1.14      <0.040              N.D.    
 6 A1-14-2h N.D.     N.D.  N.D.           1.21      <0.040              N.D.    
 7 A1-14-6h N.D.     N.D.  N.D.           1.12      <0.040              N.D.    
 8 A1-15    N.D.     N.D.  N.D.           0.930     <0.040              N.D.    
 9 B1-0     N.D.     N.D.  N.D.           0.910     <0.040              N.D.    
10 B1-2h    N.D.     N.D.  N.D.           1.07      <0.040              N.D.    
# ℹ 36 more rows
# ℹ 11 more variables: `MC-HILR` <chr>, `MC-HTYR` <chr>, MCLA <chr>,
#   `MCLF ` <chr>, MCLR <chr>, MCLW <chr>, MCLY <chr>, MCRR <chr>, MCWR <chr>,
#   MCYR <chr>, NOD <chr>
…
    # Tiempo total en horas
    Time_hours = Days * 24 + Hours
  ) %>%
  # Reordenamos columnas para que los tratamientos estén al inicio
  select(Name, Group, Days, Hours, Time_hours, everything())

toxinas5 |>
  mutate(across(c(Days), as.numeric))

# A tibble: 40 × 22
   Name     Group  Days Hours Time_hours `7D-CYN`  ATXA `CYN + 7E-CYN` `D-MCLR `
   <chr>    <chr> <dbl> <int>      <dbl>    <dbl> <dbl>          <dbl>     <dbl>
 1 A1-0     A1        0     0          0        0     0              0      1.03
 2 A1-2h    A1        0     2          2        0     0              0      1.03
 3 A1-6h    A1        0     6          6        0     0              0      1.13
 4 A1-1     A1        1    24         48        0     0              0      1.06
 5 A1-14-0h A1        0     0          0        0     0              0      1.14
 6 A1-14-2h A1        0     2          2        0     0              0      1.21
 7 A1-14-6h A1       15     6        366        0     0              0      1.12
 8 A1-15    A1       15    24        384        0     0              0      0.93
 9 B1-0     B1        0     0          0        0     0              0      0.91
10 B1-2h    B1        0     2          2        0     0              0      1.07
# ℹ 30 more rows
# ℹ 13 more variables: `D-MCRR + DE-MCRR ` <dbl>, `H-ATXA` <dbl>,
#   `MC-HILR` <dbl>, `MC-HTYR` <dbl>, MCLA <dbl>, `MCLF ` <dbl>, MCLR <dbl>,
#   MCLW <dbl>, MCLY <dbl>, MCRR <dbl>, MCWR <dbl>, MCYR <dbl>, NOD <dbl>
…
